%YAML 1.1
%TAG !u! tag:unity3d.com,2011:
--- !u!114 &11400000
MonoBehaviour:
  m_ObjectHideFlags: 0
  m_PrefabParentObject: {fileID: 0}
  m_PrefabInternal: {fileID: 0}
  m_GameObject: {fileID: 0}
  m_Enabled: 1
  m_EditorHideFlags: 0
  m_Script: {fileID: 11500000, guid: e5b1cfa55911c4b66a274c94f4b32ddf, type: 3}
  m_Name: Dedalos
  m_EditorClassIdentifier: 
  clanColor: 0
  championAsset: {fileID: 0}
  description: lontra gigante
  cardImage: {fileID: 21300000, guid: 95826e1ecad974fc18f4ae4eb3d409a2, type: 3}
  manaCost: 0
  rarity: 0
  maxToughness: 2
  power: 1
  movement: 1
  attackRange: 1
  CreatureScriptName: 
  spellScriptName: 
  targets: 0
