%YAML 1.1
%TAG !u! tag:unity3d.com,2011:
--- !u!114 &11400000
MonoBehaviour:
  m_ObjectHideFlags: 0
  m_PrefabParentObject: {fileID: 0}
  m_PrefabInternal: {fileID: 0}
  m_GameObject: {fileID: 0}
  m_Enabled: 1
  m_EditorHideFlags: 0
  m_Script: {fileID: 11500000, guid: e5b1cfa55911c4b66a274c94f4b32ddf, type: 3}
  m_Name: Gorgon
  m_EditorClassIdentifier: 
  clanColor: 4
  championAsset: {fileID: 0}
  description: agghiaccia eroi
  cardImage: {fileID: 21300000, guid: 4f1415ff3ff55411faa95351fcff2dee, type: 3}
  manaCost: 0
  rarity: 0
  maxToughness: 1
  power: 1
  movement: 1
  attackRange: 1
  CreatureScriptName: 
  spellScriptName: 
  targets: 0
